{
    "id": "com.modxvm.xvm.sounds",
    "name": "XVM Sounds",
    "description": "XVM Sounds module",

    "version": "XVM_VERSION",
    "dependencies": ["com.modxvm.xvm"],
    "dependencies_optional": ["com.modxvm.xfw.wwise"],

    "url": "https://modxvm.com/",
    "url_update": "https://modxvm.com/",

    "wot_version_min": "WOT_VERSION",
    "wot_version_exactmatch": false,

    "features": ["python"]
}
